MELODEM data workshop – Methods in longitudinal dementia research workshop
…
# don't forget to add these targets
# to the targets list at the bottom!

−+

05:00

Your turn

run tar_read(data_zzzz), where zzzz is your data name.

tar_read(data_melodem)

------------------------------------- sprint ------------------------------------- 
# A tibble: 7,159 × 23
  status  time frailty_catg statin aspirin  egfr sub_ckd   age sub_cvd race4
   <dbl> <dbl> <fct>         <dbl>   <dbl> <dbl>   <dbl> <dbl>   <dbl> <fct>
1      0 11.8  Pre-frail         0       0  88.2       0    57       0 BLACK
2      0 12.4  Pre-frail         1       1  82.1       0    61       0 WHITE
3      0 10.4  Frail             1       0  97.5       0    56       0 WHITE
4      0  7.34 Pre-frail         0       0  87.3       0    63       0 WHITE
5      0  7.36 Pre-frail         0       0  68.0       0    71       1 WHITE
# ℹ 7,154 more rows
# ℹ 13 more variables: CHR <dbl>, GLUR <dbl>, HDL <dbl>, TRR <dbl>,
#   UMALCR <dbl>, BMI <dbl>, sbp <dbl>, dbp <dbl>, fr_risk10yrs <dbl>,
#   orth_hypo <dbl>, education <dbl>, treatment <fct>, sex <fct>
…
